<?xml version="1.0" encoding="utf-8"?>
<!-- Generator: Adobe Illustrator 22.1.0, SVG Export Plug-In . SVG Version: 6.00 Build 0)  -->
<svg version="1.1"
	 id="Calque_1" inkscape:version="0.92.2 5c3e80d, 2017-08-06" sodipodi:docname="epub-reflowable-genere_2.svg" xmlns:cc="http://creativecommons.org/ns#" xmlns:dc="http://purl.org/dc/elements/1.1/" xmlns:inkscape="http://www.inkscape.org/namespaces/inkscape" xmlns:rdf="http://www.w3.org/1999/02/22-rdf-syntax-ns#" xmlns:sodipodi="http://sodipodi.sourceforge.net/DTD/sodipodi-0.dtd" xmlns:svg="http://www.w3.org/2000/svg"
	 xmlns="http://www.w3.org/2000/svg" xmlns:xlink="http://www.w3.org/1999/xlink" x="0px" y="0px" viewBox="0 0 986 616"
	 style="enable-background:new 0 0 986 616;" xml:space="preserve">
<style type="text/css">
	.st0{fill:#1CC2E8;}
	.st1{fill:#4F4F4F;}
	.st2{fill:none;stroke:#BDBFBE;stroke-width:1.1334;stroke-miterlimit:10;}
	.st3{fill:#BDBFBE;}
	.st4{fill:#E3E1E1;stroke:#BDBFBE;stroke-width:0.7556;stroke-miterlimit:10;}
	.st5{fill:none;stroke:#808080;stroke-width:5.2882;stroke-linecap:round;stroke-miterlimit:10;}
	.st6{fill:none;stroke:#515151;stroke-width:9.8209;stroke-linecap:round;stroke-miterlimit:10;}
	.st7{fill:#999999;stroke:#333333;stroke-width:1.2917;stroke-linecap:round;stroke-miterlimit:10;}
	.st8{fill:none;stroke:#333333;stroke-width:1.2917;stroke-miterlimit:10;}
	.st9{fill:none;stroke:#929292;stroke-width:2.3795;stroke-linecap:round;stroke-miterlimit:10;}
	.st10{fill:#DBDADA;stroke:#003030;stroke-width:0.9131;stroke-linecap:round;stroke-linejoin:bevel;}
	.st11{fill:none;stroke:#FFFFFF;stroke-width:3.5625;stroke-linecap:round;stroke-linejoin:round;}
	.st12{fill:none;stroke:#000000;stroke-miterlimit:10;}
	.st13{fill:none;stroke:#000000;stroke-miterlimit:10;stroke-dasharray:11.6607,11.6607;}
	.st14{fill:none;stroke:#000000;stroke-miterlimit:10;stroke-dasharray:12.1496,12.1496;}
</style>
<sodipodi:namedview  bordercolor="#666666" borderopacity="1" gridtolerance="10" guidetolerance="10" id="namedview76" inkscape:current-layer="Calque_1" inkscape:cx="84.169492" inkscape:cy="308" inkscape:pageopacity="0" inkscape:pageshadow="2" inkscape:window-height="480" inkscape:window-maximized="0" inkscape:window-width="798" inkscape:window-x="0" inkscape:window-y="0" inkscape:zoom="0.38311688" objecttolerance="10" pagecolor="#ffffff" showgrid="false">
	</sodipodi:namedview>
<path id="path3922" inkscape:connector-curvature="0" sodipodi:nodetypes="cccccccc" class="st0" d="M479.8,298.5h28.6l0.1-11.6
	l28.5,22.2l-28.5,20.5v-10.8h-28.7V298.5z"/>
<g>
	<path class="st1" d="M952.8,36.8c0-9.9-8-17.9-17.9-17.9H601.1c-9.9,0-17.9,8-17.9,17.9v192.5c-0.6,2.8-0.1,5.7-0.1,8.7v299.2
		c0,24.3,19.6,43.9,43.9,43.9h281.8c24.3,0,43.9-19.6,43.9-43.9V253.7c0.5-1.7,0.1-3.6,0.1-5.5L952.8,36.8L952.8,36.8z"/>
	<g>
		<path class="st2" d="M895.5,543.3H638.6c-10.5,0-19-8.5-19-19v-112c0-10.5,8.5-19,19-19h256.9c10.5,0,19,8.5,19,19v112
			C914.5,534.8,906.1,543.3,895.5,543.3z"/>
		<line class="st2" x1="619.6" y1="504.7" x2="914.5" y2="504.7"/>
		<line class="st2" x1="673.4" y1="504.7" x2="673.4" y2="543.3"/>
		<line class="st2" x1="859" y1="504.7" x2="859" y2="543.3"/>
	</g>
	<path class="st3" d="M723.2,531.1l-9.1-5.3c-0.5-0.2-0.5-0.8,0-1.1l9.1-5.3c0.5-0.2,1,0.1,1,0.5v10.6
		C724.2,531.1,723.6,531.4,723.2,531.1z"/>
	<path class="st3" d="M810.5,519.5l9.1,5.3c0.5,0.2,0.5,0.8,0,1.1l-9.1,5.3c-0.5,0.2-1-0.1-1-0.5V520
		C809.6,519.6,810.1,519.2,810.5,519.5z"/>
	<path class="st4" d="M911.6,455.2h-289c-1.7,0-3-1.4-3-3V62.6c0-1.7,1.4-3,3-3h289c1.7,0,3,1.4,3,3v389.7
		C914.5,453.9,913.2,455.2,911.6,455.2z"/>
</g>
<line class="st5" x1="644.7" y1="117.4" x2="897.8" y2="117.4"/>
<line class="st5" x1="645.1" y1="129.2" x2="898.1" y2="129.2"/>
<line class="st5" x1="645.1" y1="141.2" x2="898.1" y2="141.2"/>
<line class="st5" x1="645.1" y1="154.8" x2="898.1" y2="154.8"/>
<line class="st6" x1="645.6" y1="94.4" x2="734.8" y2="94.4"/>
<g>
	<g>
		<rect x="644.7" y="174.1" class="st7" width="77.4" height="116.3"/>
		<line class="st8" x1="644.7" y1="174.1" x2="722.4" y2="290.7"/>
		<line class="st8" x1="721.8" y1="174.1" x2="644.7" y2="290.7"/>
	</g>
	<g>
		<rect x="733.4" y="174.1" class="st7" width="77.4" height="116.3"/>
		<line class="st8" x1="733.4" y1="174.1" x2="811.3" y2="290.7"/>
		<line class="st8" x1="810.6" y1="174.1" x2="733.4" y2="290.7"/>
	</g>
</g>
<g>
	<g>
		<rect x="644.7" y="303.7" class="st7" width="77.4" height="116.3"/>
		<line class="st8" x1="644.7" y1="303.7" x2="722.4" y2="420.4"/>
		<line class="st8" x1="721.8" y1="303.7" x2="644.7" y2="420.4"/>
	</g>
	<g>
		<rect x="733.4" y="303.7" class="st7" width="77.4" height="116.3"/>
		<line class="st8" x1="733.4" y1="303.7" x2="811.3" y2="420.4"/>
		<line class="st8" x1="810.6" y1="303.7" x2="733.4" y2="420.4"/>
	</g>
</g>
<g>
	<line class="st9" x1="893.6" y1="438.7" x2="899.4" y2="442.7"/>
	<line class="st9" x1="893.5" y1="446.7" x2="899.4" y2="442.7"/>
</g>
<g>
	<line class="st9" x1="647.5" y1="448.7" x2="641.7" y2="444.6"/>
	<line class="st9" x1="647.6" y1="440.7" x2="641.7" y2="444.6"/>
</g>
<g>
	<g>
		<rect x="82.6" y="94.9" class="st10" width="77.4" height="116.3"/>
		<line class="st8" x1="82.6" y1="94.9" x2="160.3" y2="211.6"/>
		<line class="st8" x1="159.7" y1="94.9" x2="82.6" y2="211.6"/>
	</g>
	<g>
		<rect x="189.2" y="94.9" class="st10" width="77.4" height="116.3"/>
		<line class="st8" x1="189.2" y1="94.9" x2="267" y2="211.6"/>
		<line class="st8" x1="266.4" y1="94.9" x2="189.2" y2="211.6"/>
	</g>
	<g>
		<rect x="295.9" y="94.9" class="st10" width="77.4" height="116.3"/>
		<line class="st8" x1="295.9" y1="94.9" x2="373.6" y2="211.6"/>
		<line class="st8" x1="373" y1="94.9" x2="295.9" y2="211.6"/>
	</g>
</g>
<g>
	<g>
		<rect x="82.6" y="238.8" class="st10" width="77.4" height="116.3"/>
		<line class="st8" x1="82.6" y1="238.8" x2="160.3" y2="355.4"/>
		<line class="st8" x1="159.7" y1="238.8" x2="82.6" y2="355.4"/>
	</g>
	<g>
		<rect x="189.2" y="238.8" class="st10" width="77.4" height="116.3"/>
		<line class="st8" x1="189.2" y1="238.8" x2="267" y2="355.4"/>
		<line class="st8" x1="266.4" y1="238.8" x2="189.2" y2="355.4"/>
	</g>
	<g>
		<rect x="295.9" y="238.8" class="st10" width="77.4" height="116.3"/>
		<line class="st8" x1="295.9" y1="238.8" x2="373.6" y2="355.4"/>
		<line class="st8" x1="373" y1="238.8" x2="295.9" y2="355.4"/>
	</g>
</g>
<g>
	<g>
		<rect x="82.6" y="382.6" class="st10" width="77.4" height="116.3"/>
		<line class="st8" x1="82.6" y1="382.6" x2="160.3" y2="499.3"/>
		<line class="st8" x1="159.7" y1="382.6" x2="82.6" y2="499.3"/>
	</g>
	<g>
		<rect x="189.2" y="382.6" class="st10" width="77.4" height="116.3"/>
		<line class="st8" x1="189.2" y1="382.6" x2="267" y2="499.3"/>
		<line class="st8" x1="266.4" y1="382.6" x2="189.2" y2="499.3"/>
	</g>
	<g>
		<rect x="295.9" y="382.6" class="st10" width="77.4" height="116.3"/>
		<line class="st8" x1="295.9" y1="382.6" x2="373.6" y2="499.3"/>
		<line class="st8" x1="373" y1="382.6" x2="295.9" y2="499.3"/>
	</g>
</g>
<g id="g58">
	<g>
		<circle id="circle55" class="st0" cx="159.7" cy="175.5" r="12.6"/>
	</g>
	<path id="path5710" inkscape:connector-curvature="0" class="st11" d="M154.4,173.7l4.8,8.5l5.9-13.4"/>
</g>
<g id="g58_1_">
	<g>
		<circle id="circle55_1_" class="st0" cx="266.4" cy="179.4" r="12.6"/>
	</g>
	<path id="path5710_1_" inkscape:connector-curvature="0" class="st11" d="M261,177.6l4.8,8.5l5.9-13.4"/>
</g>
<g id="g58_2_">
	<g>
		<circle id="circle55_2_" class="st0" cx="266.4" cy="315" r="12.6"/>
	</g>
	<path id="path5710_2_" inkscape:connector-curvature="0" class="st11" d="M261,313.2l4.8,8.5l5.9-13.4"/>
</g>
<g id="g58_3_">
	<g>
		<circle id="circle55_3_" class="st0" cx="266.4" cy="443.9" r="12.6"/>
	</g>
	<path id="path5710_3_" inkscape:connector-curvature="0" class="st11" d="M261,442.1l4.8,8.5l5.9-13.4"/>
</g>
<g>
	<g>
		<polyline class="st12" points="414.5,536.8 414.5,542.8 408.5,542.8 		"/>
		<line class="st13" x1="396.9" y1="542.8" x2="52.9" y2="542.8"/>
		<polyline class="st12" points="47.1,542.8 41.1,542.8 41.1,536.8 		"/>
		<line class="st14" x1="41.1" y1="524.7" x2="41.1" y2="69.1"/>
		<polyline class="st12" points="41.1,63 41.1,57 47.1,57 		"/>
		<line class="st13" x1="58.7" y1="57" x2="402.7" y2="57"/>
		<polyline class="st12" points="408.5,57 414.5,57 414.5,63 		"/>
		<line class="st14" x1="414.5" y1="75.2" x2="414.5" y2="530.8"/>
	</g>
</g>
</svg>
