<?xml version="1.0" encoding="utf-8"?>
<!-- Generator: Adobe Illustrator 22.1.0, SVG Export Plug-In . SVG Version: 6.00 Build 0)  -->
<svg version="1.1"
	 id="Calque_1" inkscape:version="0.92.2 5c3e80d, 2017-08-06" sodipodi:docname="pdf-bureautique_2.svg" xmlns:cc="http://creativecommons.org/ns#" xmlns:dc="http://purl.org/dc/elements/1.1/" xmlns:inkscape="http://www.inkscape.org/namespaces/inkscape" xmlns:rdf="http://www.w3.org/1999/02/22-rdf-syntax-ns#" xmlns:sodipodi="http://sodipodi.sourceforge.net/DTD/sodipodi-0.dtd" xmlns:svg="http://www.w3.org/2000/svg"
	 xmlns="http://www.w3.org/2000/svg" xmlns:xlink="http://www.w3.org/1999/xlink" x="0px" y="0px" viewBox="0 0 1102 586"
	 style="enable-background:new 0 0 1102 586;" xml:space="preserve">
<style type="text/css">
	.st0{fill:#1CC2E8;}
	.st1{fill:#DBDADA;stroke:#003030;stroke-width:0.9131;stroke-linecap:round;stroke-linejoin:bevel;}
	.st2{fill:none;stroke:#333333;stroke-width:1.2917;stroke-miterlimit:10;}
	.st3{fill:none;stroke:#FFFFFF;stroke-width:3.5625;stroke-linecap:round;stroke-linejoin:round;}
	.st4{fill:none;stroke:#000000;stroke-miterlimit:10;}
	.st5{fill:none;stroke:#000000;stroke-miterlimit:10;stroke-dasharray:11.6607,11.6607;}
	.st6{fill:none;stroke:#000000;stroke-miterlimit:10;stroke-dasharray:12.1496,12.1496;}
	.st7{fill:#FFFFFF;}
	.st8{fill:none;stroke:#737373;stroke-width:13.396;stroke-linecap:round;stroke-miterlimit:10;}
	.st9{fill:none;stroke:#737373;stroke-width:4.4654;stroke-linecap:round;stroke-miterlimit:10;}
	.st10{fill:none;stroke:#1CC2E8;stroke-width:2;stroke-linecap:round;stroke-miterlimit:10;}
	.st11{fill:#DBDADA;stroke:#003030;stroke-linecap:round;stroke-linejoin:bevel;}
	.st12{fill:none;stroke:#333333;stroke-miterlimit:10;}
</style>
<sodipodi:namedview  bordercolor="#666666" borderopacity="1" gridtolerance="10" guidetolerance="10" id="namedview31" inkscape:current-layer="Calque_1" inkscape:cx="400" inkscape:cy="400" inkscape:pageopacity="0" inkscape:pageshadow="2" inkscape:window-height="480" inkscape:window-maximized="0" inkscape:window-width="640" inkscape:window-x="0" inkscape:window-y="0" inkscape:zoom="0.295" objecttolerance="10" pagecolor="#ffffff" showgrid="false">
	</sodipodi:namedview>
<path id="path3922" inkscape:connector-curvature="0" sodipodi:nodetypes="cccccccc" class="st0" d="M526.8,281.7h28.6l0.1-11.6
	l28.5,22.2l-28.5,20.5V302h-28.7V281.7z"/>
<g>
	<g>
		<rect x="129.6" y="78.1" class="st1" width="77.4" height="116.3"/>
		<line class="st2" x1="129.6" y1="78.1" x2="207.3" y2="194.8"/>
		<line class="st2" x1="206.7" y1="78.1" x2="129.6" y2="194.8"/>
	</g>
	<g>
		<rect x="236.2" y="78.1" class="st1" width="77.4" height="116.3"/>
		<line class="st2" x1="236.2" y1="78.1" x2="314" y2="194.8"/>
		<line class="st2" x1="313.4" y1="78.1" x2="236.2" y2="194.8"/>
	</g>
	<g>
		<rect x="342.9" y="78.1" class="st1" width="77.4" height="116.3"/>
		<line class="st2" x1="342.9" y1="78.1" x2="420.6" y2="194.8"/>
		<line class="st2" x1="420" y1="78.1" x2="342.9" y2="194.8"/>
	</g>
</g>
<g>
	<g>
		<rect x="129.6" y="222" class="st1" width="77.4" height="116.3"/>
		<line class="st2" x1="129.6" y1="222" x2="207.3" y2="338.6"/>
		<line class="st2" x1="206.7" y1="222" x2="129.6" y2="338.6"/>
	</g>
	<g>
		<rect x="236.2" y="222" class="st1" width="77.4" height="116.3"/>
		<line class="st2" x1="236.2" y1="222" x2="314" y2="338.6"/>
		<line class="st2" x1="313.4" y1="222" x2="236.2" y2="338.6"/>
	</g>
	<g>
		<rect x="342.9" y="222" class="st1" width="77.4" height="116.3"/>
		<line class="st2" x1="342.9" y1="222" x2="420.6" y2="338.6"/>
		<line class="st2" x1="420" y1="222" x2="342.9" y2="338.6"/>
	</g>
</g>
<g>
	<g>
		<rect x="129.6" y="365.8" class="st1" width="77.4" height="116.3"/>
		<line class="st2" x1="129.6" y1="365.8" x2="207.3" y2="482.5"/>
		<line class="st2" x1="206.7" y1="365.8" x2="129.6" y2="482.5"/>
	</g>
	<g>
		<rect x="236.2" y="365.8" class="st1" width="77.4" height="116.3"/>
		<line class="st2" x1="236.2" y1="365.8" x2="314" y2="482.5"/>
		<line class="st2" x1="313.4" y1="365.8" x2="236.2" y2="482.5"/>
	</g>
	<g>
		<rect x="342.9" y="365.8" class="st1" width="77.4" height="116.3"/>
		<line class="st2" x1="342.9" y1="365.8" x2="420.6" y2="482.5"/>
		<line class="st2" x1="420" y1="365.8" x2="342.9" y2="482.5"/>
	</g>
</g>
<g id="g58">
	<g>
		<circle id="circle55" class="st0" cx="206.7" cy="158.7" r="12.6"/>
	</g>
	<path id="path5710" inkscape:connector-curvature="0" class="st3" d="M201.4,156.9l4.8,8.5l5.9-13.4"/>
</g>
<g id="g58_1_">
	<g>
		<circle id="circle55_1_" class="st0" cx="313.4" cy="162.6" r="12.6"/>
	</g>
	<path id="path5710_1_" inkscape:connector-curvature="0" class="st3" d="M308,160.8l4.8,8.5l5.9-13.4"/>
</g>
<g id="g58_2_">
	<g>
		<circle id="circle55_2_" class="st0" cx="313.4" cy="298.2" r="12.6"/>
	</g>
	<path id="path5710_2_" inkscape:connector-curvature="0" class="st3" d="M308,296.4l4.8,8.5l5.9-13.4"/>
</g>
<g id="g58_3_">
	<g>
		<circle id="circle55_3_" class="st0" cx="313.4" cy="427.1" r="12.6"/>
	</g>
	<path id="path5710_3_" inkscape:connector-curvature="0" class="st3" d="M308,425.3l4.8,8.5l5.9-13.4"/>
</g>
<g>
	<g>
		<polyline class="st4" points="461.5,520 461.5,526 455.5,526 		"/>
		<line class="st5" x1="443.9" y1="526" x2="99.9" y2="526"/>
		<polyline class="st4" points="94.1,526 88.1,526 88.1,520 		"/>
		<line class="st6" x1="88.1" y1="507.9" x2="88.1" y2="52.3"/>
		<polyline class="st4" points="88.1,46.2 88.1,40.2 94.1,40.2 		"/>
		<line class="st5" x1="105.7" y1="40.2" x2="449.7" y2="40.2"/>
		<polyline class="st4" points="455.5,40.2 461.5,40.2 461.5,46.2 		"/>
		<line class="st6" x1="461.5" y1="58.4" x2="461.5" y2="514"/>
	</g>
</g>
<g>
	<g>
		<rect x="676" y="30.7" class="st7" width="359" height="513"/>
		<path d="M1033,32.7v509H678v-509H1033 M1037,28.7H674v517h363V28.7L1037,28.7z"/>
	</g>
	<g>
		<rect x="670.9" y="29.6" class="st7" width="361.7" height="512.3"/>
		<path d="M1031.7,30.4v510.5h-360V30.4H1031.7 M1033.4,28.7H670v514h363.4V28.7L1033.4,28.7z"/>
	</g>
</g>
<line class="st8" x1="701.3" y1="74.7" x2="848.7" y2="74.7"/>
<g>
	<line class="st9" x1="697.6" y1="101.5" x2="908.2" y2="101.5"/>
	<line class="st9" x1="697.6" y1="116.3" x2="908.2" y2="116.3"/>
	<line class="st9" x1="697.6" y1="131.1" x2="908.2" y2="131.1"/>
	<line class="st9" x1="697.6" y1="145.6" x2="908.2" y2="145.6"/>
	<line class="st9" x1="697.6" y1="160.4" x2="908.2" y2="160.4"/>
	<line class="st9" x1="697.6" y1="175.2" x2="868.4" y2="175.2"/>
</g>
<g>
	<g id="g58_6_">
		<g>
			<circle id="circle55_6_" class="st0" cx="1010.2" cy="523.7" r="6.1"/>
		</g>
	</g>
	<line class="st10" x1="994" y1="523.7" x2="870" y2="523.7"/>
</g>
<g>
	<g>
		<rect x="705.7" y="208.1" class="st11" width="77.2" height="116.1"/>
		<line class="st12" x1="705.7" y1="208.1" x2="783.2" y2="324.6"/>
		<line class="st12" x1="782.6" y1="208.1" x2="705.7" y2="324.6"/>
	</g>
	<g>
		<rect x="805.5" y="208.1" class="st11" width="77.2" height="116.1"/>
		<line class="st12" x1="805.5" y1="208.1" x2="883.1" y2="324.6"/>
		<line class="st12" x1="882.5" y1="208.1" x2="805.5" y2="324.6"/>
	</g>
	<g>
		<rect x="905.4" y="208.1" class="st11" width="77.2" height="116.1"/>
		<line class="st12" x1="905.4" y1="208.1" x2="982.9" y2="324.6"/>
		<line class="st12" x1="982.3" y1="208.1" x2="905.4" y2="324.6"/>
	</g>
</g>
<g>
	<g>
		<rect x="707.4" y="352.6" class="st11" width="77.2" height="116.1"/>
		<line class="st12" x1="707.4" y1="352.6" x2="784.9" y2="469.1"/>
		<line class="st12" x1="784.3" y1="352.6" x2="707.4" y2="469.1"/>
	</g>
	<g>
		<rect x="807.2" y="352.6" class="st11" width="77.2" height="116.1"/>
		<line class="st12" x1="807.2" y1="352.6" x2="884.8" y2="469.1"/>
		<line class="st12" x1="884.2" y1="352.6" x2="807.2" y2="469.1"/>
	</g>
	<g>
		<rect x="907.1" y="352.6" class="st11" width="77.2" height="116.1"/>
		<line class="st12" x1="907.1" y1="352.6" x2="984.6" y2="469.1"/>
		<line class="st12" x1="984" y1="352.6" x2="907.1" y2="469.1"/>
	</g>
</g>
</svg>
