<?xml version="1.0" encoding="UTF-8" standalone="no"?>
<!-- Generator: Adobe Illustrator 22.1.0, SVG Export Plug-In . SVG Version: 6.00 Build 0)  -->

<svg
   xmlns:dc="http://purl.org/dc/elements/1.1/"
   xmlns:cc="http://creativecommons.org/ns#"
   xmlns:rdf="http://www.w3.org/1999/02/22-rdf-syntax-ns#"
   xmlns:svg="http://www.w3.org/2000/svg"
   xmlns="http://www.w3.org/2000/svg"
   xmlns:sodipodi="http://sodipodi.sourceforge.net/DTD/sodipodi-0.dtd"
   xmlns:inkscape="http://www.inkscape.org/namespaces/inkscape"
   version="1.1"
   id="Calque_1"
   x="0px"
   y="0px"
   viewBox="0 0 1920 800"
   xml:space="preserve"
   sodipodi:docname="ZUI_epub-reflowable.svg"
   inkscape:version="0.92.2 5c3e80d, 2017-08-06"
   width="1920"
   height="800"><metadata
     id="metadata87"><rdf:RDF><cc:Work
         rdf:about=""><dc:format>image/svg+xml</dc:format><dc:type
           rdf:resource="http://purl.org/dc/dcmitype/StillImage" /><dc:title /></cc:Work></rdf:RDF></metadata><defs
     id="defs85" /><sodipodi:namedview
     pagecolor="#ffffff"
     bordercolor="#666666"
     borderopacity="1"
     objecttolerance="10"
     gridtolerance="10"
     guidetolerance="10"
     inkscape:pageopacity="0"
     inkscape:pageshadow="2"
     inkscape:window-width="1451"
     inkscape:window-height="865"
     id="namedview83"
     showgrid="false"
     inkscape:zoom="0.66833084"
     inkscape:cx="896.44199"
     inkscape:cy="466.68112"
     inkscape:window-x="1679"
     inkscape:window-y="0"
     inkscape:window-maximized="0"
     inkscape:current-layer="Calque_1" /><style
     type="text/css"
     id="style2">
	.st0{fill:#4F4F4F;}
	.st1{fill:none;stroke:#BDBFBE;stroke-width:1.5003;stroke-miterlimit:10;}
	.st2{fill:#BDBFBE;}
	.st3{fill:#E3E1E1;stroke:#BDBFBE;stroke-width:1.0002;stroke-miterlimit:10;}
	.st4{fill:#666666;stroke:#808080;stroke-width:7;stroke-linecap:round;stroke-miterlimit:10;}
	.st5{fill:#333333;stroke:#515151;stroke-width:13;stroke-linecap:round;stroke-miterlimit:10;}
	.st6{fill:#999999;stroke:#333333;stroke-width:1.7098;stroke-linecap:round;stroke-miterlimit:10;}
	.st7{fill:none;stroke:#333333;stroke-width:1.7098;stroke-miterlimit:10;}
	.st8{fill:none;stroke:#C2C2C2;stroke-width:5;stroke-linecap:round;stroke-miterlimit:10;}
</style><g
     id="g22"><path
       class="st0"
       d="m 644.8,51.2 c 0,-13.1 -10.6,-23.7 -23.7,-23.7 H 179.3 c -13.1,0 -23.7,10.6 -23.7,23.7 V 306 c -0.8,3.7 -0.1,7.6 -0.1,11.5 v 396 c 0,32.1 26,58.1 58.1,58.1 h 373 c 32.1,0 58.1,-26 58.1,-58.1 V 338.3 c 0.7,-2.3 0.1,-4.7 0.1,-7.3 z"
       id="path4"
       inkscape:connector-curvature="0"
       style="fill:#4f4f4f" /><g
       id="g14"><path
         class="st1"
         d="M 569,721.7 H 229 c -13.9,0 -25.2,-11.3 -25.2,-25.2 V 548.2 c 0,-13.9 11.3,-25.2 25.2,-25.2 h 340 c 13.9,0 25.2,11.3 25.2,25.2 v 148.3 c 0,13.9 -11.2,25.2 -25.2,25.2 z"
         id="path6"
         inkscape:connector-curvature="0"
         style="fill:none;stroke:#bdbfbe;stroke-width:1.50030005;stroke-miterlimit:10" /><line
         class="st1"
         x1="203.8"
         y1="670.59998"
         x2="594.20001"
         y2="670.59998"
         id="line8"
         style="fill:none;stroke:#bdbfbe;stroke-width:1.50030005;stroke-miterlimit:10" /><line
         class="st1"
         x1="275"
         y1="670.59998"
         x2="275"
         y2="721.70001"
         id="line10"
         style="fill:none;stroke:#bdbfbe;stroke-width:1.50030005;stroke-miterlimit:10" /><line
         class="st1"
         x1="520.70001"
         y1="670.59998"
         x2="520.70001"
         y2="721.70001"
         id="line12"
         style="fill:none;stroke:#bdbfbe;stroke-width:1.50030005;stroke-miterlimit:10" /></g><path
       class="st2"
       d="m 340.9,705.6 -12.1,-7 c -0.6,-0.3 -0.6,-1.1 0,-1.4 l 12.1,-7 c 0.6,-0.3 1.3,0.1 1.3,0.7 v 14 c 0,0.6 -0.7,1 -1.3,0.7 z"
       id="path16"
       inkscape:connector-curvature="0"
       style="fill:#bdbfbe" /><path
       class="st2"
       d="m 456.5,690.2 12.1,7 c 0.6,0.3 0.6,1.1 0,1.4 l -12.1,7 c -0.6,0.3 -1.3,-0.1 -1.3,-0.7 v -14 c 0.1,-0.6 0.8,-1.1 1.3,-0.7 z"
       id="path18"
       inkscape:connector-curvature="0"
       style="fill:#bdbfbe" /><path
       class="st3"
       d="M 590.3,605.1 H 207.7 c -2.2,0 -4,-1.8 -4,-4 V 85.4 c 0,-2.2 1.8,-4 4,-4 h 382.5 c 2.2,0 4,1.8 4,4 v 515.8 c 0,2.2 -1.7,3.9 -3.9,3.9 z"
       id="path20"
       inkscape:connector-curvature="0"
       style="fill:#e3e1e1;stroke:#bdbfbe;stroke-width:1.00020003;stroke-miterlimit:10" /></g><line
     class="st8"
     x1="498"
     y1="581"
     x2="561"
     y2="581"
     id="line78"
     style="fill:none;stroke:#c2c2c2;stroke-width:5;stroke-linecap:round;stroke-miterlimit:10" /><line
     class="st8"
     x1="237.5"
     y1="588.5"
     x2="300.5"
     y2="588.5"
     id="line80"
     style="fill:none;stroke:#c2c2c2;stroke-width:5;stroke-linecap:round;stroke-miterlimit:10" /><g
     id="g857"
     transform="translate(540)"><path
       id="path839"
       d="m 644.8,51.2 c 0,-13.1 -10.6,-23.7 -23.7,-23.7 H 179.3 c -13.1,0 -23.7,10.6 -23.7,23.7 V 306 c -0.8,3.7 -0.1,7.6 -0.1,11.5 v 396 c 0,32.1 26,58.1 58.1,58.1 h 373 c 32.1,0 58.1,-26 58.1,-58.1 V 338.3 c 0.7,-2.3 0.1,-4.7 0.1,-7.3 z"
       class="st0"
       inkscape:connector-curvature="0"
       style="fill:#4f4f4f" /><g
       id="g849"><path
         id="path841"
         d="M 569,721.7 H 229 c -13.9,0 -25.2,-11.3 -25.2,-25.2 V 548.2 c 0,-13.9 11.3,-25.2 25.2,-25.2 h 340 c 13.9,0 25.2,11.3 25.2,25.2 v 148.3 c 0,13.9 -11.2,25.2 -25.2,25.2 z"
         class="st1"
         inkscape:connector-curvature="0"
         style="fill:none;stroke:#bdbfbe;stroke-width:1.50030005;stroke-miterlimit:10" /><line
         id="line843"
         y2="670.59998"
         x2="594.20001"
         y1="670.59998"
         x1="203.8"
         class="st1"
         style="fill:none;stroke:#bdbfbe;stroke-width:1.50030005;stroke-miterlimit:10" /><line
         id="line845"
         y2="721.70001"
         x2="275"
         y1="670.59998"
         x1="275"
         class="st1"
         style="fill:none;stroke:#bdbfbe;stroke-width:1.50030005;stroke-miterlimit:10" /><line
         id="line847"
         y2="721.70001"
         x2="520.70001"
         y1="670.59998"
         x1="520.70001"
         class="st1"
         style="fill:none;stroke:#bdbfbe;stroke-width:1.50030005;stroke-miterlimit:10" /></g><path
       id="path851"
       d="m 340.9,705.6 -12.1,-7 c -0.6,-0.3 -0.6,-1.1 0,-1.4 l 12.1,-7 c 0.6,-0.3 1.3,0.1 1.3,0.7 v 14 c 0,0.6 -0.7,1 -1.3,0.7 z"
       class="st2"
       inkscape:connector-curvature="0"
       style="fill:#bdbfbe" /><path
       id="path853"
       d="m 456.5,690.2 12.1,7 c 0.6,0.3 0.6,1.1 0,1.4 l -12.1,7 c -0.6,0.3 -1.3,-0.1 -1.3,-0.7 v -14 c 0.1,-0.6 0.8,-1.1 1.3,-0.7 z"
       class="st2"
       inkscape:connector-curvature="0"
       style="fill:#bdbfbe" /><path
       id="path855"
       d="M 590.3,605.1 H 207.7 c -2.2,0 -4,-1.8 -4,-4 V 85.4 c 0,-2.2 1.8,-4 4,-4 h 382.5 c 2.2,0 4,1.8 4,4 v 515.8 c 0,2.2 -1.7,3.9 -3.9,3.9 z"
       class="st3"
       inkscape:connector-curvature="0"
       style="fill:#e3e1e1;stroke:#bdbfbe;stroke-width:1.00020003;stroke-miterlimit:10" /></g><line
     id="line859"
     y2="581"
     x2="1101"
     y1="581"
     x1="1038"
     class="st8"
     style="fill:none;stroke:#c2c2c2;stroke-width:5;stroke-linecap:round;stroke-miterlimit:10" /><line
     id="line861"
     y2="588.5"
     x2="840.5"
     y1="588.5"
     x1="777.5"
     class="st8"
     style="fill:none;stroke:#c2c2c2;stroke-width:5;stroke-linecap:round;stroke-miterlimit:10" /><g
     transform="translate(1080)"
     id="g881"><path
       style="fill:#4f4f4f"
       inkscape:connector-curvature="0"
       class="st0"
       d="m 644.8,51.2 c 0,-13.1 -10.6,-23.7 -23.7,-23.7 H 179.3 c -13.1,0 -23.7,10.6 -23.7,23.7 V 306 c -0.8,3.7 -0.1,7.6 -0.1,11.5 v 396 c 0,32.1 26,58.1 58.1,58.1 h 373 c 32.1,0 58.1,-26 58.1,-58.1 V 338.3 c 0.7,-2.3 0.1,-4.7 0.1,-7.3 z"
       id="path863" /><g
       id="g873"><path
         style="fill:none;stroke:#bdbfbe;stroke-width:1.50030005;stroke-miterlimit:10"
         inkscape:connector-curvature="0"
         class="st1"
         d="M 569,721.7 H 229 c -13.9,0 -25.2,-11.3 -25.2,-25.2 V 548.2 c 0,-13.9 11.3,-25.2 25.2,-25.2 h 340 c 13.9,0 25.2,11.3 25.2,25.2 v 148.3 c 0,13.9 -11.2,25.2 -25.2,25.2 z"
         id="path865" /><line
         style="fill:none;stroke:#bdbfbe;stroke-width:1.50030005;stroke-miterlimit:10"
         class="st1"
         x1="203.8"
         y1="670.59998"
         x2="594.20001"
         y2="670.59998"
         id="line867" /><line
         style="fill:none;stroke:#bdbfbe;stroke-width:1.50030005;stroke-miterlimit:10"
         class="st1"
         x1="275"
         y1="670.59998"
         x2="275"
         y2="721.70001"
         id="line869" /><line
         style="fill:none;stroke:#bdbfbe;stroke-width:1.50030005;stroke-miterlimit:10"
         class="st1"
         x1="520.70001"
         y1="670.59998"
         x2="520.70001"
         y2="721.70001"
         id="line871" /></g><path
       style="fill:#bdbfbe"
       inkscape:connector-curvature="0"
       class="st2"
       d="m 340.9,705.6 -12.1,-7 c -0.6,-0.3 -0.6,-1.1 0,-1.4 l 12.1,-7 c 0.6,-0.3 1.3,0.1 1.3,0.7 v 14 c 0,0.6 -0.7,1 -1.3,0.7 z"
       id="path875" /><path
       style="fill:#bdbfbe"
       inkscape:connector-curvature="0"
       class="st2"
       d="m 456.5,690.2 12.1,7 c 0.6,0.3 0.6,1.1 0,1.4 l -12.1,7 c -0.6,0.3 -1.3,-0.1 -1.3,-0.7 v -14 c 0.1,-0.6 0.8,-1.1 1.3,-0.7 z"
       id="path877" /><path
       style="fill:#e3e1e1;stroke:#bdbfbe;stroke-width:1.00020003;stroke-miterlimit:10"
       inkscape:connector-curvature="0"
       class="st3"
       d="M 590.3,605.1 H 207.7 c -2.2,0 -4,-1.8 -4,-4 V 85.4 c 0,-2.2 1.8,-4 4,-4 h 382.5 c 2.2,0 4,1.8 4,4 v 515.8 c 0,2.2 -1.7,3.9 -3.9,3.9 z"
       id="path879" /></g><line
     style="fill:none;stroke:#c2c2c2;stroke-width:5;stroke-linecap:round;stroke-miterlimit:10"
     class="st8"
     x1="1578"
     y1="581"
     x2="1641"
     y2="581"
     id="line883" /><line
     style="fill:none;stroke:#c2c2c2;stroke-width:5;stroke-linecap:round;stroke-miterlimit:10"
     class="st8"
     x1="1317.5"
     y1="588.5"
     x2="1380.5"
     y2="588.5"
     id="line885" /><rect
     style="opacity:1;fill:none;fill-opacity:1;fill-rule:nonzero;stroke:#000000;stroke-width:3;stroke-linecap:round;stroke-linejoin:bevel;stroke-miterlimit:4;stroke-dasharray:none;stroke-dashoffset:0;stroke-opacity:1"
     id="rect3398"
     width="246.89845"
     height="186.41306"
     x="1314.6333"
     y="104.86443" /><path
     style="fill:none;fill-rule:evenodd;stroke:#000000;stroke-width:3.07956553px;stroke-linecap:butt;stroke-linejoin:miter;stroke-opacity:1"
     d="m 1314.6332,104.86396 246.8984,186.41296"
     id="path3406"
     inkscape:connector-curvature="0" /><path
     style="fill:none;fill-rule:evenodd;stroke:#000000;stroke-width:3.07956553px;stroke-linecap:butt;stroke-linejoin:miter;stroke-opacity:1"
     d="M 1561.5316,104.86396 1314.6332,291.27692"
     id="path3408"
     inkscape:connector-curvature="0" /><rect
     y="195.70093"
     x="231.35223"
     height="164.68719"
     width="218.12321"
     id="rect3491"
     style="opacity:1;fill:none;fill-opacity:1;fill-rule:nonzero;stroke:#000000;stroke-width:3;stroke-linecap:round;stroke-linejoin:bevel;stroke-miterlimit:4;stroke-dasharray:none;stroke-dashoffset:0;stroke-opacity:1" /><path
     inkscape:connector-curvature="0"
     id="path3493"
     d="M 231.35151,195.70087 449.47484,360.38799"
     style="fill:none;fill-rule:evenodd;stroke:#000000;stroke-width:2.72065163px;stroke-linecap:butt;stroke-linejoin:miter;stroke-opacity:1" /><path
     inkscape:connector-curvature="0"
     id="path3495"
     d="M 449.47484,195.70087 231.35151,360.38799"
     style="fill:none;fill-rule:evenodd;stroke:#000000;stroke-width:2.72065163px;stroke-linecap:butt;stroke-linejoin:miter;stroke-opacity:1" /><rect
     style="opacity:1;fill:none;fill-opacity:1;fill-rule:nonzero;stroke:#000000;stroke-width:3;stroke-linecap:round;stroke-linejoin:bevel;stroke-miterlimit:4;stroke-dasharray:none;stroke-dashoffset:0;stroke-opacity:1"
     id="rect3497"
     width="219.26266"
     height="165.5475"
     x="777.50885"
     y="109.07683" /><path
     style="fill:none;fill-rule:evenodd;stroke:#000000;stroke-width:2.73486423px;stroke-linecap:butt;stroke-linejoin:miter;stroke-opacity:1"
     d="M 777.50822,109.07629 996.77101,274.62371"
     id="path3499"
     inkscape:connector-curvature="0" /><path
     style="fill:none;fill-rule:evenodd;stroke:#000000;stroke-width:2.73486423px;stroke-linecap:butt;stroke-linejoin:miter;stroke-opacity:1"
     d="M 996.77101,109.07629 777.50822,274.62371"
     id="path3501"
     inkscape:connector-curvature="0" /><rect
     y="396.22583"
     x="777.50885"
     height="165.5475"
     width="219.26266"
     id="rect3503"
     style="opacity:1;fill:none;fill-opacity:1;fill-rule:nonzero;stroke:#000000;stroke-width:3;stroke-linecap:round;stroke-linejoin:bevel;stroke-miterlimit:4;stroke-dasharray:none;stroke-dashoffset:0;stroke-opacity:1" /><path
     inkscape:connector-curvature="0"
     id="path3505"
     d="M 777.50822,396.22541 996.77101,561.77283"
     style="fill:none;fill-rule:evenodd;stroke:#000000;stroke-width:2.73486423px;stroke-linecap:butt;stroke-linejoin:miter;stroke-opacity:1" /><path
     inkscape:connector-curvature="0"
     id="path3507"
     d="M 996.77101,396.22541 777.50822,561.77283"
     style="fill:none;fill-rule:evenodd;stroke:#000000;stroke-width:2.73486423px;stroke-linecap:butt;stroke-linejoin:miter;stroke-opacity:1" /><rect
     style="opacity:1;fill:#8b8b8b;fill-opacity:1;fill-rule:nonzero;stroke:none;stroke-width:3.97413468;stroke-linecap:round;stroke-linejoin:bevel;stroke-miterlimit:4;stroke-dasharray:none;stroke-dashoffset:0;stroke-opacity:0.88837208"
     id="rect3410"
     width="224.48204"
     height="15.914929"
     x="230.24602"
     y="106.10363" /><rect
     y="130.41055"
     x="230.24602"
     height="15.914929"
     width="267.80313"
     id="rect3412"
     style="opacity:1;fill:#8b8b8b;fill-opacity:1;fill-rule:nonzero;stroke:none;stroke-width:4.34069824;stroke-linecap:round;stroke-linejoin:bevel;stroke-miterlimit:4;stroke-dasharray:none;stroke-dashoffset:0;stroke-opacity:0.88837208" /><rect
     style="opacity:1;fill:#8b8b8b;fill-opacity:1;fill-rule:nonzero;stroke:none;stroke-width:3.97413468;stroke-linecap:round;stroke-linejoin:bevel;stroke-miterlimit:4;stroke-dasharray:none;stroke-dashoffset:0;stroke-opacity:0.88837208"
     id="rect3414"
     width="224.48204"
     height="15.914929"
     x="230.24602"
     y="154.71645" /><rect
     style="opacity:1;fill:#8b8b8b;fill-opacity:1;fill-rule:nonzero;stroke:none;stroke-width:3.97413468;stroke-linecap:round;stroke-linejoin:bevel;stroke-miterlimit:4;stroke-dasharray:none;stroke-dashoffset:0;stroke-opacity:0.88837208"
     id="rect3410-1"
     width="224.48204"
     height="15.914929"
     x="235.15036"
     y="383.87811" /><rect
     y="408.18503"
     x="235.15036"
     height="15.914929"
     width="267.80313"
     id="rect3412-8"
     style="opacity:1;fill:#8b8b8b;fill-opacity:1;fill-rule:nonzero;stroke:none;stroke-width:4.34069824;stroke-linecap:round;stroke-linejoin:bevel;stroke-miterlimit:4;stroke-dasharray:none;stroke-dashoffset:0;stroke-opacity:0.88837208" /><rect
     style="opacity:1;fill:#8b8b8b;fill-opacity:1;fill-rule:nonzero;stroke:none;stroke-width:3.97413468;stroke-linecap:round;stroke-linejoin:bevel;stroke-miterlimit:4;stroke-dasharray:none;stroke-dashoffset:0;stroke-opacity:0.88837208"
     id="rect3414-5"
     width="224.48204"
     height="15.914929"
     x="235.15036"
     y="432.49136" /><rect
     y="306.10016"
     x="778.60724"
     height="15.998068"
     width="225.65471"
     id="rect3485"
     style="opacity:1;fill:#8b8b8b;fill-opacity:1;fill-rule:nonzero;stroke:none;stroke-width:3.99489522;stroke-linecap:round;stroke-linejoin:bevel;stroke-miterlimit:4;stroke-dasharray:none;stroke-dashoffset:0;stroke-opacity:0.88837208" /><rect
     style="opacity:1;fill:#8b8b8b;fill-opacity:1;fill-rule:nonzero;stroke:none;stroke-width:4.36337376;stroke-linecap:round;stroke-linejoin:bevel;stroke-miterlimit:4;stroke-dasharray:none;stroke-dashoffset:0;stroke-opacity:0.88837208"
     id="rect3487"
     width="269.20212"
     height="15.998068"
     x="778.60724"
     y="330.53409" /><rect
     y="354.96738"
     x="778.60724"
     height="15.998068"
     width="225.65471"
     id="rect3489"
     style="opacity:1;fill:#8b8b8b;fill-opacity:1;fill-rule:nonzero;stroke:none;stroke-width:3.99489522;stroke-linecap:round;stroke-linejoin:bevel;stroke-miterlimit:4;stroke-dasharray:none;stroke-dashoffset:0;stroke-opacity:0.88837208" /></svg>