<?xml version="1.0" encoding="utf-8"?>
<!-- Generator: Adobe Illustrator 21.1.0, SVG Export Plug-In . SVG Version: 6.00 Build 0)  -->
<svg version="1.1" id="Capa_1" xmlns="http://www.w3.org/2000/svg" xmlns:xlink="http://www.w3.org/1999/xlink" x="0px" y="0px"
	 viewBox="0 0 480.3 480.3" style="enable-background:new 0 0 480.3 480.3;" xml:space="preserve">
<style type="text/css">
	.st0{stroke:#000000;stroke-width:10;stroke-miterlimit:10;}
	.st1{stroke:#000000;stroke-width:8;stroke-linejoin:round;stroke-miterlimit:10;}
	.st2{fill:none;stroke:#000000;stroke-width:10;stroke-linecap:round;stroke-linejoin:round;stroke-miterlimit:10;}
</style>
<g>
	<g>
		<path class="st0" d="M392,28v416H102V28H392 M392,18H102c-5.5,0-10,4.5-10,10v416c0,5.5,4.5,10,10,10h290c5.5,0,10-4.5,10-10V28
			C402,22.5,397.5,18,392,18L392,18z"/>
	</g>
	<g>
		<path class="st1" d="M364.7,61.7v190.6H130.3V61.7H364.7 M374.4,52H120.6v210h253.8V52L374.4,52z"/>
	</g>
	<g>
		<line class="st2" x1="374.4" y1="288" x2="163" y2="288"/>
	</g>
	<g>
		<line class="st2" x1="374.4" y1="310.2" x2="163" y2="310.2"/>
	</g>
	<g>
		<line class="st2" x1="374.4" y1="332.5" x2="163" y2="332.5"/>
	</g>
	<g>
		<line class="st2" x1="374.4" y1="354.7" x2="163" y2="354.7"/>
	</g>
	<g>
		<line class="st2" x1="374.4" y1="377" x2="163" y2="377"/>
	</g>
</g>
</svg>
